<?xml version="1.0" encoding="UTF-8"?>
<svg shape-rendering="crispEdges" width="192" height="192" viewBox="0 0 192 192" fill="$FOREGROUND_COLOR" stroke="none" xmlns="http://www.w3.org/2000/svg">
<path d="M33.7668 30.4669C31.4814 28.0591 31.7263 24.2637 34.2565 22.1415C49.4381 9.40864 68.1293 1.73626 87.8408 0.0630256C91.1465 -0.222648 94.0032 2.30761 94.0848 5.61326C94.1664 8.63324 91.8811 11.1635 88.8611 11.4084C71.435 12.8775 54.9475 19.6521 41.5616 30.9158C39.2762 32.8339 35.8481 32.6299 33.7668 30.4669Z" fill-opacity="1" stroke="none" fill="$EVENING_COLOR"/>
<path d="M5.73014 93.3557C2.4653 93.2741 -0.105767 90.4581 0.179907 87.1933C1.97557 67.1145 10.0153 48.2192 23.2379 32.9969C25.4008 30.5074 29.1962 30.385 31.5224 32.7112C33.6854 34.8333 33.8078 38.2206 31.8489 40.506C20.2179 53.9327 13.1577 70.5426 11.5661 88.2136C11.3212 91.1927 8.75012 93.4373 5.73014 93.3557Z" fill-opacity="1" stroke="none"/>
<path d="M16.585 138.941C13.6875 140.492 10.0553 139.349 8.70856 136.37C6.46398 131.554 4.62751 126.575 3.23995 121.474C3.0359 120.74 2.83184 120.046 2.6686 119.311C2.58698 118.944 2.50536 118.577 2.38293 118.209C1.15861 113.108 0.383211 107.843 0.0159158 102.579C-0.228948 99.314 2.38293 96.5389 5.68858 96.498C8.70857 96.498 11.198 98.7834 11.4021 101.803C11.7285 106.456 12.4223 111.067 13.4834 115.557C13.565 115.883 13.6466 116.21 13.7283 116.495C13.8915 117.148 14.0547 117.76 14.218 118.413C15.4423 122.902 17.0747 127.31 19.0336 131.514C20.3396 134.289 19.2377 137.513 16.585 138.941Z" fill-opacity="1" stroke="none"/>
<path d="M22.2579 157.713C20.1357 155.183 18.136 152.571 16.2996 149.837C14.4631 147.102 15.3201 143.389 18.136 141.756C20.7071 140.246 24.0536 140.981 25.7676 143.47C27.4 145.878 29.1549 148.204 30.9914 150.408C32.9095 152.693 32.7054 156.122 30.5424 158.203C28.1754 160.407 24.38 160.203 22.2579 157.713Z" fill-opacity="1" stroke="none"/>
<path d="M88.2897 191.831C67.8436 190.199 48.6218 182.159 33.073 168.732C30.5836 166.569 30.4611 162.774 32.7465 160.448C34.8687 158.285 38.2559 158.163 40.5413 160.121C54.2129 171.956 71.1493 179.058 89.1467 180.486C92.1259 180.731 94.4521 183.261 94.3705 186.281C94.3705 189.505 91.5545 192.076 88.2897 191.831Z" fill-opacity="1" stroke="none" fill="$AFTERNOON_COLOR"/>
<path d="M97.5933 186.199C97.5525 183.179 99.8379 180.649 102.858 180.404C113.224 179.547 123.426 176.812 132.772 172.323C135.506 171.017 138.771 172.037 140.24 174.649C141.873 177.506 140.73 181.179 137.751 182.607C127.14 187.709 115.591 190.851 103.797 191.79C100.491 192.075 97.6749 189.504 97.5933 186.199Z" fill-opacity="1" stroke="none"/>
<path d="M142.975 173.099C141.425 170.528 142.118 167.182 144.567 165.427C154.729 158.326 163.258 149.021 169.461 138.288C175.869 127.188 179.705 114.659 180.603 101.803C180.807 98.7834 183.337 96.498 186.316 96.498C189.581 96.5389 192.193 99.314 191.989 102.579C190.969 117.148 186.643 131.35 179.338 144.002C172.277 156.163 162.605 166.733 151.097 174.773C148.444 176.691 144.689 175.915 142.975 173.099Z" fill-opacity="1" stroke="none" fill="$MORNING_COLOR"/>
<path d="M180.48 88.1733C180.235 85.3166 179.827 82.5007 179.296 79.7256C178.725 76.7872 180.562 73.8896 183.459 73.1142C186.642 72.298 189.866 74.2978 190.479 77.5218C191.091 80.705 191.54 83.929 191.825 87.1531C192.111 90.4179 189.581 93.2339 186.275 93.3563C183.296 93.4379 180.725 91.1933 180.48 88.1733Z" fill-opacity="1" stroke="none"/>
<path d="M175.624 66.6243C169.544 50.0552 158.443 35.8531 143.792 25.8545C141.303 24.1405 140.568 20.8348 142.119 18.2229C143.792 15.407 147.506 14.55 150.199 16.3865C166.85 27.7318 179.42 43.852 186.358 62.7065C187.5 65.7673 185.745 69.1545 182.603 70.0932C179.705 70.9502 176.645 69.4402 175.624 66.6243Z" fill-opacity="1" stroke="none" fill="$NIGHT_COLOR"/>
<path d="M131.956 19.0802C122.814 14.8359 112.938 12.2241 102.858 11.4078C99.8379 11.163 97.5525 8.63273 97.5933 5.61275C97.6341 2.30709 100.45 -0.263975 103.756 0.0216985C115.223 0.960341 126.487 3.93951 136.853 8.75516C139.832 10.1427 141.016 13.7749 139.424 16.6724C137.955 19.3251 134.69 20.3862 131.956 19.0802Z" fill-opacity="1" stroke="none"/>
<path d="M139.017 43.3607C133.303 38.7083 126.896 34.9945 120.04 32.3826C117.224 31.3216 115.714 28.3016 116.53 25.4448C117.469 22.2616 120.938 20.5068 124.039 21.6903C132.079 24.751 139.629 29.077 146.281 34.5456C148.852 36.6677 149.097 40.5039 146.771 42.9117C144.73 45.0747 141.343 45.238 139.017 43.3607Z" fill-opacity="1" stroke="none"/>
<path d="M107.061 28.8748C105.633 28.6299 104.164 28.4666 102.735 28.3034C99.7563 28.0177 97.5525 25.4875 97.5933 22.5083C97.675 19.1618 100.572 16.6316 103.878 16.9581C105.551 17.1213 107.184 17.3254 108.857 17.611C112.163 18.1416 114.285 21.3656 113.509 24.6305C112.775 27.4872 110 29.3645 107.061 28.8748Z" fill-opacity="1" stroke="none"/>
<path d="M22.6241 94.3347C19.3185 94.2531 16.7474 91.4372 17.0739 88.1315C18.8287 69.93 26.7868 53.0344 39.8054 39.9342C52.8239 26.8748 69.6787 18.8352 87.8394 16.9987C91.1451 16.6722 94.0018 19.2433 94.0834 22.5489C94.165 25.5281 91.9205 28.0584 88.9413 28.3848C73.4333 29.9765 59.0271 36.8326 47.8859 48.0147C36.7446 59.1968 29.97 73.6438 28.46 89.1518C28.1335 92.1309 25.6441 94.4163 22.6241 94.3347Z" fill-opacity="1" stroke="none"/>
<path d="M17.7269 108.74C17.4412 107.108 17.2371 105.435 17.0739 103.762C16.7474 100.456 19.3185 97.5176 22.6241 97.4768C25.6033 97.3951 28.1336 99.6397 28.4192 102.619C28.5417 104.088 28.7457 105.516 28.9906 106.945C29.4803 109.883 27.603 112.699 24.7055 113.393C21.4814 114.168 18.2574 112.046 17.7269 108.74Z" fill-opacity="1" stroke="none"/>
<path d="M23.686 128.574C22.9922 127.064 22.3393 125.513 21.7679 123.962C20.5844 120.82 22.2985 117.351 25.5225 116.453C28.3792 115.637 31.3992 117.106 32.4603 119.881C32.9908 121.228 33.5214 122.615 34.1335 123.921C35.3578 126.615 34.2968 129.839 31.6849 131.267C28.7465 132.859 25.0736 131.635 23.686 128.574Z" fill-opacity="1" stroke="none"/>
<path d="M67.9652 170.159C53.355 164.65 40.7446 154.937 31.5622 142.245C29.6033 139.51 30.3787 135.715 33.2354 134.001C35.8065 132.45 39.1122 133.144 40.867 135.592C48.7026 146.489 59.5174 154.773 72.0055 159.507C74.8214 160.568 76.3314 163.588 75.5152 166.445C74.5765 169.628 71.1076 171.342 67.9652 170.159Z" fill-opacity="1" stroke="none"/>
<path d="M88.2072 174.853C86.5339 174.69 84.8607 174.486 83.1875 174.2C79.8818 173.67 77.7189 170.446 78.5351 167.181C79.2288 164.283 82.0448 162.406 84.9831 162.896C86.4523 163.141 87.9215 163.345 89.3907 163.467C92.3698 163.753 94.5736 166.283 94.5328 169.262C94.4512 172.65 91.5536 175.18 88.2072 174.853Z" fill-opacity="1" stroke="none"/>
<path d="M97.5929 169.304C97.5113 166.325 99.7967 163.794 102.776 163.509C118.366 161.958 132.853 155.142 144.076 143.96C155.258 132.778 162.114 118.25 163.624 102.66C163.91 99.6809 166.44 97.4363 169.42 97.4771C172.725 97.5587 175.296 100.415 175.011 103.68C173.256 121.923 165.257 138.9 152.157 152C139.056 165.1 122.079 173.099 103.837 174.854C100.531 175.18 97.6746 172.609 97.5929 169.304Z" fill-opacity="1" stroke="none"/>
<path d="M163.585 89.1517C162.279 75.8475 157.055 63.237 148.567 52.8712C146.649 50.5449 146.853 47.1577 149.016 45.1171C151.423 42.7909 155.3 43.0766 157.423 45.6477C167.34 57.7684 173.42 72.4602 174.971 88.009C175.298 91.3555 172.767 94.2531 169.421 94.3347C166.401 94.4163 163.911 92.1309 163.585 89.1517Z" fill-opacity="1" stroke="none"/>
<path d="M69.1496 46.2588C67.5172 43.2796 68.8639 39.5659 72.0063 38.2599C77.1076 36.1378 82.4946 34.7094 87.9633 33.9748C91.3505 33.5259 94.3297 36.097 94.4521 39.4842C94.5338 42.4226 92.4116 44.912 89.4732 45.2793C84.9433 45.8507 80.5357 47.0342 76.3322 48.7891C73.6796 49.9317 70.5371 48.8299 69.1496 46.2588Z" fill-opacity="1" stroke="none"/>
<path d="M39.6024 94.3343C36.2151 94.2527 33.6441 91.2735 34.093 87.927C36.2151 71.358 44.867 56.3805 58.1712 46.2186C60.8647 44.1781 64.7009 44.9127 66.4558 47.7694C67.9658 50.2181 67.3128 53.6054 65.0274 55.3194C54.2126 63.6039 47.1524 75.7655 45.4383 89.2738C45.0302 92.1713 42.4591 94.4159 39.6024 94.3343Z" fill-opacity="1" stroke="none"/>
<path d="M34.1333 104.251C34.1333 104.129 34.0925 104.007 34.0925 103.884C33.6844 100.538 36.2554 97.5993 39.6019 97.4768C42.5403 97.3952 45.0297 99.5582 45.397 102.456C45.397 102.537 45.4378 102.619 45.4378 102.741C45.8051 105.639 43.9278 108.373 41.1119 109.026C37.8062 109.802 34.5822 107.598 34.1333 104.251Z" fill-opacity="1" stroke="none"/>
<path d="M46.5403 134.001C43.153 129.635 40.3779 124.778 38.2558 119.718C36.9498 116.575 38.6231 112.984 41.8879 112.045C44.7038 111.229 47.683 112.617 48.7849 115.31C50.4989 119.514 52.8251 123.472 55.6002 127.104C57.3959 129.431 57.1102 132.695 54.9881 134.695C52.5395 137.021 48.6216 136.695 46.5403 134.001Z" fill-opacity="1" stroke="none"/>
<path d="M88.0454 157.836C77.0265 156.407 66.6198 152.122 57.8455 145.307C55.1929 143.266 54.9072 139.349 57.2334 136.9C59.2331 134.778 62.5388 134.492 64.865 136.288C72.0068 141.838 80.4954 145.348 89.4737 146.49C92.3713 146.858 94.5342 149.388 94.4526 152.286C94.3302 155.714 91.3918 158.285 88.0454 157.836Z" fill-opacity="1" stroke="none"/>
<path d="M97.5931 152.325C97.5114 149.387 99.6744 146.856 102.572 146.489C102.654 146.489 102.735 146.448 102.858 146.448C105.755 146.081 108.489 147.958 109.142 150.774C109.918 154.039 107.714 157.304 104.368 157.753C104.245 157.753 104.123 157.794 104 157.794C100.654 158.283 97.6747 155.712 97.5931 152.325Z" fill-opacity="1" stroke="none"/>
<path d="M112.122 150.04C111.306 147.224 112.694 144.245 115.387 143.143C119.591 141.429 123.549 139.103 127.182 136.328C129.508 134.532 132.773 134.818 134.772 136.94C137.098 139.389 136.772 143.347 134.079 145.429C129.712 148.816 124.855 151.591 119.795 153.713C116.693 154.978 113.102 153.264 112.122 150.04Z" fill-opacity="1" stroke="none"/>
<path d="M137.017 134.696C134.895 132.697 134.609 129.391 136.405 127.065C136.446 126.983 136.527 126.942 136.568 126.861C138.364 124.534 141.588 123.922 144.077 125.473C146.934 127.228 147.669 131.105 145.628 133.758C145.547 133.88 145.465 133.962 145.383 134.043C143.384 136.737 139.466 137.022 137.017 134.696Z" fill-opacity="1" stroke="none"/>
<path d="M145.668 122.779C143.097 121.392 141.995 118.29 143.097 115.597C144.852 111.393 146.036 106.985 146.607 102.415C146.974 99.5172 149.505 97.3542 152.402 97.4358C155.789 97.5175 158.36 100.537 157.912 103.925C157.218 109.434 155.749 114.821 153.626 119.922C152.402 123.065 148.648 124.371 145.668 122.779Z" fill-opacity="1" stroke="none"/>
<path d="M146.647 89.3961C146.076 84.8661 144.892 80.4586 143.137 76.2551C141.995 73.5616 143.137 70.46 145.708 69.0724C148.688 67.44 152.401 68.7868 153.707 71.9292C155.829 77.0305 157.258 82.4175 157.992 87.8861C158.441 91.2734 155.87 94.2526 152.483 94.375C149.545 94.4158 147.014 92.2936 146.647 89.3961Z" fill-opacity="1" stroke="none"/>
<path d="M136.567 64.9095C128.282 54.0947 116.121 47.0345 102.613 45.3205C99.7967 44.9532 97.5113 42.3413 97.5929 39.4846C97.6746 36.1381 100.654 33.5262 104 33.9751C120.569 36.0973 135.547 44.7491 145.709 58.0534C147.749 60.7469 147.015 64.5831 144.158 66.3379C141.668 67.8479 138.281 67.1949 136.567 64.9095Z" fill-opacity="1" stroke="none"/>
<path d="M98.0424 134.819V134.452C97.92 131.677 99.9197 129.269 102.654 128.779C104.572 128.412 106.409 127.922 108.245 127.228C110.857 126.249 113.795 127.31 115.101 129.759L115.264 130.085C116.856 133.024 115.469 136.737 112.326 137.921C109.796 138.859 107.225 139.594 104.572 140.043C101.266 140.655 98.1649 138.206 98.0424 134.819Z" fill-opacity="1" stroke="none"/>
<path d="M129.835 88.3763C129.467 86.6214 128.978 84.9482 128.365 83.2749C127.386 80.6222 128.529 77.6839 130.977 76.2963C133.997 74.6231 137.833 76.0107 139.058 79.2755C139.874 81.4793 140.527 83.7647 141.017 86.0909C141.71 89.4781 139.18 92.7022 135.752 92.9062C132.936 93.0695 130.406 91.1514 129.835 88.3763Z" fill-opacity="1" stroke="none"/>
<path d="M121.999 72.664C120.856 71.3581 119.632 70.1746 118.326 69.0727C116.163 67.2362 115.673 64.0938 117.183 61.7268C119.02 58.7884 123.019 58.0946 125.672 60.3392C127.427 61.8084 129.059 63.4408 130.61 65.1549C132.895 67.7667 132.324 71.7662 129.426 73.6843C127.019 75.1943 123.876 74.7862 121.999 72.664Z" fill-opacity="1" stroke="none"/>
<path d="M107.551 62.9509C105.96 62.3796 104.327 61.9714 102.654 61.645C99.879 61.1144 97.9201 58.625 98.0425 55.8091C98.2058 52.3402 101.348 49.7691 104.735 50.4221C106.98 50.8302 109.184 51.4015 111.347 52.1769C114.612 53.3196 116.081 57.115 114.489 60.1758C113.183 62.6652 110.245 63.8487 107.551 62.9509Z" fill-opacity="1" stroke="none"/>
<path d="M78.4128 60.0944C76.8212 57.0336 78.3312 53.2382 81.5961 52.0955C83.759 51.3609 85.9628 50.7896 88.2482 50.3815C91.6355 49.7693 94.7779 52.3404 94.9003 55.8093C95.0227 58.6252 93.023 61.1146 90.2479 61.6452C88.5747 61.9308 86.9423 62.3798 85.3098 62.9103C82.6571 63.8081 79.7188 62.5838 78.4128 60.0944Z" fill-opacity="1" stroke="none"/>
<path d="M56.9874 92.9057C53.5185 92.7016 51.0291 89.5184 51.7229 86.1311C53.8042 76.0101 59.2728 66.8277 67.2309 60.2164C69.8836 58.0126 73.883 58.7064 75.7195 61.6448C77.1887 64.0526 76.6989 67.195 74.536 68.9907C68.5776 73.9696 64.4966 80.8258 62.9458 88.3757C62.3336 91.1508 59.8034 93.0689 56.9874 92.9057Z" fill-opacity="1" stroke="none"/>
<path d="M135.997 96.4155C139.466 96.5379 142.037 99.6803 141.425 103.108C139.589 113.27 134.283 122.575 126.489 129.35C123.877 131.635 119.836 131.023 117.959 128.125C116.408 125.758 116.857 122.575 118.979 120.739C124.815 115.637 128.774 108.699 130.161 101.109C130.692 98.2928 133.181 96.2931 135.997 96.4155Z" fill-opacity="1" stroke="none"/>
<path d="M53.5595 109.433C52.9473 107.475 52.3352 105.23 51.8046 102.985C50.9884 99.3124 53.3554 96.17 57.0692 96.0067C59.8443 95.8843 62.2929 97.7208 62.9051 100.414C63.3132 102.292 63.8845 104.25 64.4559 106.087C65.3537 108.985 63.8437 112.086 60.987 113.106C57.9262 114.29 54.5389 112.576 53.5595 109.433Z" fill-opacity="1" stroke="none"/>
<path d="M88.2069 140.041C77.6369 138.123 68.0872 132.532 61.2311 124.248C59.0273 121.595 59.7211 117.555 62.6594 115.759C65.0673 114.29 68.2097 114.78 70.0053 116.943C75.1475 123.187 82.2893 127.39 90.2474 128.819C93.0225 129.308 94.9814 131.798 94.8998 134.654C94.7773 138.082 91.6349 140.654 88.2069 140.041Z" fill-opacity="1" stroke="none"/>
<path d="M112.653 89.4361C110.857 84.3756 106.776 80.417 101.675 78.7846C99.3077 78.05 97.7977 75.683 98.0018 73.2343L98.0426 72.663C98.2875 69.1941 101.716 66.8271 105.062 67.8473C113.714 70.5408 120.57 77.2338 123.508 85.7632C124.651 89.0688 122.366 92.5377 118.897 92.905L118.325 92.9458C115.836 93.1907 113.469 91.7623 112.653 89.4361Z" fill-opacity="1" stroke="none"/>
<path d="M74.3734 93.0274L73.8837 92.9866C70.4148 92.6602 68.1294 89.1504 69.2313 85.8856C70.7005 81.6413 73.1491 77.7643 76.414 74.6219C79.6788 71.4387 83.6782 69.1125 87.9634 67.8065C91.3098 66.7863 94.6971 69.1941 94.9012 72.663L94.942 73.1527C95.1052 75.6422 93.5544 78.0092 91.1874 78.7438C86.0044 80.3762 81.8826 84.3348 80.0869 89.4769C79.2707 91.8439 76.8629 93.2723 74.3734 93.0274Z" fill-opacity="1" stroke="none"/>
<path d="M94.9416 117.76C94.7375 121.269 91.3095 123.636 87.9222 122.616C83.3514 121.229 79.1887 118.698 75.8014 115.189C72.4142 111.679 69.9655 107.435 68.7004 102.823C67.7618 99.4357 70.2512 96.0892 73.7609 95.9668H74.3323C76.8217 95.8852 79.0663 97.5176 79.7601 99.9254C81.3109 105.516 85.6368 109.965 91.187 111.679C93.554 112.413 95.1456 114.699 94.9824 117.188L94.9416 117.76Z" fill-opacity="1" stroke="none"/>
<path d="M98.0025 117.393C97.7985 114.781 99.4309 112.414 101.92 111.557C102.859 111.23 103.757 110.822 104.614 110.373C106.899 109.108 109.756 109.557 111.552 111.475C114.286 114.414 113.674 118.454 110.164 120.372C108.654 121.188 107.062 121.882 105.43 122.453C101.635 123.678 98.2882 121.392 98.0025 117.393Z" fill-opacity="1" stroke="none"/>
<path d="M113.795 109.597L113.346 109.23C111.387 107.598 110.857 104.904 111.959 102.619C112.367 101.762 112.693 100.905 112.938 100.007C113.632 97.5583 115.836 95.8851 118.366 95.9667H118.937C122.488 96.0892 124.936 99.4764 123.998 102.905C123.549 104.578 122.937 106.21 122.161 107.761C120.651 110.944 116.529 111.842 113.795 109.597Z" fill-opacity="1" stroke="none"/>
</svg>
